^C:\USERS\ADMIN\SOURCE\REPOS\HOMEWORK17.5\HOMEWORK17.5\DEBUG\HOMEWORK17.5.OBJ
C:\USERS\ADMIN\SOURCE\REPOS\HOMEWORK17.5\DEBUG\HOMEWORK17.5.EXE
C:\USERS\ADMIN\SOURCE\REPOS\HOMEWORK17.5\DEBUG\HOMEWORK17.5.ILK
C:\USERS\ADMIN\SOURCE\REPOS\HOMEWORK17.5\DEBUG\HOMEWORK17.5.PDB
